using System;
using System.Collections.Generic;
using System.Linq;
using System.Text;

namespace BL_Backend
{
    class User
    {
        private string username;
        private string password;

        public User(string user, string pass)
        {
            username = user;
            password = pass;
        }
    }
}
